…
column for time spent

column for class of activity

``` r
dat <- tibble(
  lecture = rep(paste0("lec", 1:4), c(8, 6, 4, 7)),
  duration = sample(1:10, 25, replace = TRUE),
  type = sample(LETTERS[1:5], 25, replace = TRUE)
)

dat
```

    ## # A tibble: 25 x 3
    ##    lecture duration type 
    ##    <chr>      <int> <chr>
    ##  1 lec1           6 B    
    ##  2 lec1           8 D    
    ##  3 lec1           4 B    
    ##  4 lec1           6 D    
    ##  5 lec1           4 C    
    ##  6 lec1           5 A    
    ##  7 lec1           1 C    
    ##  8 lec1           6 C    
    ##  9 lec2           5 C    
    ## 10 lec2           1 B    
    ## # … with 15 more rows
…
